{
    "isSuccess": true,
    "code": 600,
    "errorMessage": "",
    "result": {
        "callDivertFlag": "Add",
        "showDivert": "false",
        "callDivertDate": "20/10/2016",
        "CustCug": "CUG5600035064"
    }
}
