{
    "isSuccess": true,
    "code": 600,
    "errorMessage": "",
    "result": [
               {
               "NotificationId": 204258,
               "NotificationCategory": "Your account",
               "NotificationSubject": "BT Business account recovery",
               "NotificationBody": "",
               "NotificationDate": "2016-12-05T12:58:37Z",
               "NotificationMedium": 0,
               "DisplayNotificationMedium": "Email",
               "NotificationStatus": 1,
               "IsDeletable": true,
               "NotificationLetterUri": "",
               "NotificationKciMessageId": "6991593"
               },
               {
               "NotificationId": 204257,
               "NotificationCategory": "Your account",
               "NotificationSubject": "BT Business account recovery",
               "NotificationBody": "",
               "NotificationDate": "2016-12-05T12:58:01Z",
               "NotificationMedium": 0,
               "DisplayNotificationMedium": "Email",
               "NotificationStatus": 0,
               "IsDeletable": true,
               "NotificationLetterUri": "",
               "NotificationKciMessageId": "6991628"
               },
               {
               "NotificationId": 195306,
               "NotificationCategory": "Your account",
               "NotificationSubject": "Are your contact details correct?",
               "NotificationBody": "<!DOCTYPE html PUBLIC \"-//W3C//DTD XHTML 1.0 Transitional//EN\" \"http://www.w3.org/TR/xhtml1/DTD/xhtml1-transitional.dtd\">\n<html xmlns=\"http://www.w3.org/1999/xhtml\">\n<head>\n<meta http-equiv=\"Content-Type\" content=\"text/html; charset=utf-8\" />\n<title>Untitled Document</title>\n</head>\n<body>\n\n    <h2>\n        Are your contact details correct?\n    </h2>\n    <p>\n        You might have changed your email address or contact numbers since you last checked, so we may have been unable to send you any emails or call you recently.\n        <ul>\n        \t<li>Go to <a href=\"https://secure.business.bt.com/Account/AccountSettings.aspx\" target=\"_blank\">My Details</a></li>\n           \t<li>Take a look at your account details, especially your primary email address</li>\n            <li>To change any details use the <strong>Edit</strong> buttons</li>\n     \t</ul>\n        It'll only take a minute!\n\t</p>\n    <p>\n    \tThanks.\n  \t</p>\n\n</body>\n</html>\n\n",
               "NotificationDate": "2016-11-29T08:00:30Z",
               "NotificationMedium": 3,
               "DisplayNotificationMedium": "Message",
               "NotificationStatus": 1,
               "IsDeletable": true,
               "NotificationLetterUri": "",
               "NotificationKciMessageId": "6966377"
               },
               {
               "NotificationId": 188794,
               "NotificationCategory": "Your account",
               "NotificationSubject": "Admin access granted: GP00112759",
               "NotificationBody": "<!DOCTYPE html PUBLIC \"-//W3C//DTD XHTML 1.0 Transitional//EN\" \"http://www.w3.org/TR/xhtml1/DTD/xhtml1-transitional.dtd\">\n<html xmlns=\"http://www.w3.org/1999/xhtml\">\n<head>\n<meta http-equiv=\"Content-Type\" content=\"text/html; charset=utf-8\" />\n<title>Untitled Document</title>\n</head>\n<body>\n\n    <h2>\n        You now have admin access for GP00112759\n    </h2>\n    <p>\n        You've successfully unlocked the Admin user role for billing account, GP00112759 and can now <a href=\"https://secure.business.bt.com/Account/MyPermissions.aspx\" target=\"_blank\">view and edit permissions for the other users of this account here</a>.\n  \t</p>\n\n</body>\n</html>\n\n",
               "NotificationDate": "2016-11-24T16:05:13Z",
               "NotificationMedium": 3,
               "DisplayNotificationMedium": "Message",
               "NotificationStatus": 0,
               "IsDeletable": true,
               "NotificationLetterUri": "",
               "NotificationKciMessageId": "6947611"
               },
               {
               "NotificationId": 188774,
               "NotificationCategory": "Your account",
               "NotificationSubject": "Admin access granted: GP00112765",
               "NotificationBody": "<!DOCTYPE html PUBLIC \"-//W3C//DTD XHTML 1.0 Transitional//EN\" \"http://www.w3.org/TR/xhtml1/DTD/xhtml1-transitional.dtd\">\n<html xmlns=\"http://www.w3.org/1999/xhtml\">\n<head>\n<meta http-equiv=\"Content-Type\" content=\"text/html; charset=utf-8\" />\n<title>Untitled Document</title>\n</head>\n<body>\n\n    <h2>\n        You now have admin access for GP00112765\n    </h2>\n    <p>\n        You've successfully unlocked the Admin user role for billing account, GP00112765 and can now <a href=\"https://secure.business.bt.com/Account/MyPermissions.aspx\" target=\"_blank\">view and edit permissions for the other users of this account here</a>.\n  \t</p>\n\n</body>\n</html>\n\n",
               "NotificationDate": "2016-11-24T15:54:57Z",
               "NotificationMedium": 3,
               "DisplayNotificationMedium": "Message",
               "NotificationStatus": 0,
               "IsDeletable": true,
               "NotificationLetterUri": "",
               "NotificationKciMessageId": "6947535"
               },
               {
               "NotificationId": 188773,
               "NotificationCategory": "Your account",
               "NotificationSubject": "Admin access granted: GP00112758",
               "NotificationBody": "<!DOCTYPE html PUBLIC \"-//W3C//DTD XHTML 1.0 Transitional//EN\" \"http://www.w3.org/TR/xhtml1/DTD/xhtml1-transitional.dtd\">\n<html xmlns=\"http://www.w3.org/1999/xhtml\">\n<head>\n<meta http-equiv=\"Content-Type\" content=\"text/html; charset=utf-8\" />\n<title>Untitled Document</title>\n</head>\n<body>\n\n    <h2>\n        You now have admin access for GP00112758\n    </h2>\n    <p>\n        You've successfully unlocked the Admin user role for billing account, GP00112758 and can now <a href=\"https://secure.business.bt.com/Account/MyPermissions.aspx\" target=\"_blank\">view and edit permissions for the other users of this account here</a>.\n  \t</p>\n\n</body>\n</html>\n\n",
               "NotificationDate": "2016-11-24T15:53:55Z",
               "NotificationMedium": 3,
               "DisplayNotificationMedium": "Message",
               "NotificationStatus": 0,
               "IsDeletable": true,
               "NotificationLetterUri": "",
               "NotificationKciMessageId": "6947552"
               },
               {
               "NotificationId": 188771,
               "NotificationCategory": "Your account",
               "NotificationSubject": "Admin access granted: GP00112764",
               "NotificationBody": "<!DOCTYPE html PUBLIC \"-//W3C//DTD XHTML 1.0 Transitional//EN\" \"http://www.w3.org/TR/xhtml1/DTD/xhtml1-transitional.dtd\">\n<html xmlns=\"http://www.w3.org/1999/xhtml\">\n<head>\n<meta http-equiv=\"Content-Type\" content=\"text/html; charset=utf-8\" />\n<title>Untitled Document</title>\n</head>\n<body>\n\n    <h2>\n        You now have admin access for GP00112764\n    </h2>\n    <p>\n        You've successfully unlocked the Admin user role for billing account, GP00112764 and can now <a href=\"https://secure.business.bt.com/Account/MyPermissions.aspx\" target=\"_blank\">view and edit permissions for the other users of this account here</a>.\n  \t</p>\n\n</body>\n</html>\n\n",
               "NotificationDate": "2016-11-24T15:53:06Z",
               "NotificationMedium": 3,
               "DisplayNotificationMedium": "Message",
               "NotificationStatus": 0,
               "IsDeletable": true,
               "NotificationLetterUri": "",
               "NotificationKciMessageId": "6947551"
               },
               {
               "NotificationId": 188770,
               "NotificationCategory": "Your account",
               "NotificationSubject": "Admin access granted: GP00112767",
               "NotificationBody": "<!DOCTYPE html PUBLIC \"-//W3C//DTD XHTML 1.0 Transitional//EN\" \"http://www.w3.org/TR/xhtml1/DTD/xhtml1-transitional.dtd\">\n<html xmlns=\"http://www.w3.org/1999/xhtml\">\n<head>\n<meta http-equiv=\"Content-Type\" content=\"text/html; charset=utf-8\" />\n<title>Untitled Document</title>\n</head>\n<body>\n\n    <h2>\n        You now have admin access for GP00112767\n    </h2>\n    <p>\n        You've successfully unlocked the Admin user role for billing account, GP00112767 and can now <a href=\"https://secure.business.bt.com/Account/MyPermissions.aspx\" target=\"_blank\">view and edit permissions for the other users of this account here</a>.\n  \t</p>\n\n</body>\n</html>\n\n",
               "NotificationDate": "2016-11-24T15:52:41Z",
               "NotificationMedium": 3,
               "DisplayNotificationMedium": "Message",
               "NotificationStatus": 0,
               "IsDeletable": true,
               "NotificationLetterUri": "",
               "NotificationKciMessageId": "6947550"
               },
               {
               "NotificationId": 187374,
               "NotificationCategory": "Your account",
               "NotificationSubject": "Admin access granted: GP00112430",
               "NotificationBody": "<!DOCTYPE html PUBLIC \"-//W3C//DTD XHTML 1.0 Transitional//EN\" \"http://www.w3.org/TR/xhtml1/DTD/xhtml1-transitional.dtd\">\n<html xmlns=\"http://www.w3.org/1999/xhtml\">\n<head>\n<meta http-equiv=\"Content-Type\" content=\"text/html; charset=utf-8\" />\n<title>Untitled Document</title>\n</head>\n<body>\n\n    <h2>\n        You now have admin access for GP00112430\n    </h2>\n    <p>\n        You've successfully unlocked the Admin user role for billing account, GP00112430 and can now <a href=\"https://secure.business.bt.com/Account/MyPermissions.aspx\" target=\"_blank\">view and edit permissions for the other users of this account here</a>.\n  \t</p>\n\n</body>\n</html>\n\n",
               "NotificationDate": "2016-11-24T09:11:37Z",
               "NotificationMedium": 3,
               "DisplayNotificationMedium": "Message",
               "NotificationStatus": 0,
               "IsDeletable": true,
               "NotificationLetterUri": "",
               "NotificationKciMessageId": "6944073"
               },
               {
               "NotificationId": 187373,
               "NotificationCategory": "Your account",
               "NotificationSubject": "Admin access granted: GP00112429",
               "NotificationBody": "<!DOCTYPE html PUBLIC \"-//W3C//DTD XHTML 1.0 Transitional//EN\" \"http://www.w3.org/TR/xhtml1/DTD/xhtml1-transitional.dtd\">\n<html xmlns=\"http://www.w3.org/1999/xhtml\">\n<head>\n<meta http-equiv=\"Content-Type\" content=\"text/html; charset=utf-8\" />\n<title>Untitled Document</title>\n</head>\n<body>\n\n    <h2>\n        You now have admin access for GP00112429\n    </h2>\n    <p>\n        You've successfully unlocked the Admin user role for billing account, GP00112429 and can now <a href=\"https://secure.business.bt.com/Account/MyPermissions.aspx\" target=\"_blank\">view and edit permissions for the other users of this account here</a>.\n  \t</p>\n\n</body>\n</html>\n\n",
               "NotificationDate": "2016-11-24T09:11:25Z",
               "NotificationMedium": 3,
               "DisplayNotificationMedium": "Message",
               "NotificationStatus": 0,
               "IsDeletable": true,
               "NotificationLetterUri": "",
               "NotificationKciMessageId": "6944072"
               },
               {
               "NotificationId": 187372,
               "NotificationCategory": "Your account",
               "NotificationSubject": "Admin access granted: GP00112433",
               "NotificationBody": "<!DOCTYPE html PUBLIC \"-//W3C//DTD XHTML 1.0 Transitional//EN\" \"http://www.w3.org/TR/xhtml1/DTD/xhtml1-transitional.dtd\">\n<html xmlns=\"http://www.w3.org/1999/xhtml\">\n<head>\n<meta http-equiv=\"Content-Type\" content=\"text/html; charset=utf-8\" />\n<title>Untitled Document</title>\n</head>\n<body>\n\n    <h2>\n        You now have admin access for GP00112433\n    </h2>\n    <p>\n        You've successfully unlocked the Admin user role for billing account, GP00112433 and can now <a href=\"https://secure.business.bt.com/Account/MyPermissions.aspx\" target=\"_blank\">view and edit permissions for the other users of this account here</a>.\n  \t</p>\n\n</body>\n</html>\n\n",
               "NotificationDate": "2016-11-24T09:10:57Z",
               "NotificationMedium": 3,
               "DisplayNotificationMedium": "Message",
               "NotificationStatus": 0,
               "IsDeletable": true,
               "NotificationLetterUri": "",
               "NotificationKciMessageId": "6944063"
               },
               {
               "NotificationId": 187371,
               "NotificationCategory": "Your account",
               "NotificationSubject": "Welcome to BT Business Online - Please verify your email address",
               "NotificationBody": "",
               "NotificationDate": "2016-11-24T09:08:10Z",
               "NotificationMedium": 0,
               "DisplayNotificationMedium": "Email",
               "NotificationStatus": 0,
               "IsDeletable": true,
               "NotificationLetterUri": "",
               "NotificationKciMessageId": "6944037"
               }
               ]
}
